part2/norm_sfp_tb.vcd
$date
	Mon Mar 14 21:52:28 2022
$end
$version
	Icarus Verilog
$end
$timescale
	1ps
$end
$scope module norm_sfp_tb $end
$var wire 160 ! sfp_out [159:0] $end
$var reg 24 " abs_sum [23:0] $end
$var reg 17 # abs_sum_trunc [16:0] $end
$var reg 1 $ clk $end
$var reg 1 % norm $end
$var reg 160 & one_cycle_norm [159:0] $end
$var reg 20 ' one_norm [19:0] $end
$var reg 1 ( reset $end
$var reg 160 ) sfp_in [159:0] $end
$var reg 160 * temp16b [159:0] $end
$var reg 20 + temp5b [19:0] $end
$var reg 20 , temp_result [19:0] $end
$var integer 32 - captured_data [31:0] $end
$var integer 32 . error [31:0] $end
$var integer 32 / j [31:0] $end
$var integer 32 0 k [31:0] $end
$var integer 32 1 q [31:0] $end
$var integer 32 2 qk_file [31:0] $end
$var integer 32 3 qk_scan_file [31:0] $end
$var integer 32 4 t [31:0] $end
$scope module norm_inst $end
$var wire 1 $ clk $end
$var wire 1 % norm $end
$var wire 1 ( reset $end
$var wire 160 5 sfp_in [159:0] $end
$var wire 160 6 sfp_out [159:0] $end
$var wire 20 7 sfp_in_sign7 [19:0] $end
$var wire 20 8 sfp_in_sign6 [19:0] $end
$var wire 20 9 sfp_in_sign5 [19:0] $end
$var wire 20 : sfp_in_sign4 [19:0] $end
$var wire 20 ; sfp_in_sign3 [19:0] $end
$var wire 20 < sfp_in_sign2 [19:0] $end
$var wire 20 = sfp_in_sign1 [19:0] $end
$var wire 20 > sfp_in_sign0 [19:0] $end
$var wire 17 ? divider [16:0] $end
$var wire 24 @ abs_sum [23:0] $end
$var wire 160 A abs [159:0] $end
$var reg 20 B sfp_out_sign0 [19:0] $end
$var reg 20 C sfp_out_sign1 [19:0] $end
$var reg 20 D sfp_out_sign2 [19:0] $end
$var reg 20 E sfp_out_sign3 [19:0] $end
$var reg 20 F sfp_out_sign4 [19:0] $end
$var reg 20 G sfp_out_sign5 [19:0] $end
$var reg 20 H sfp_out_sign6 [19:0] $end
$var reg 20 I sfp_out_sign7 [19:0] $end
$upscope $end
$upscope $end
$enddefinitions $end
#0
$dumpvars
bx I
bx H
bx G
bx F
bx E
bx D
bx C
bx B
bx A
bx @
bx ?
bx >
bx =
bx <
bx ;
bx :
bx 9
bx 8
bx 7
bx 6
bx 5
bx 4
b1 3
b10000000000000000000000000000011 2
b0 1
bx 0
b10000 /
bx .
b1100110 -
bx ,
bx +
bx *
bx )
1(
bx '
bx &
0%
0$
bx #
bx "
bx !
$end
#1000
b1 1
1$
#1500
0$
#2000
b0 1
1$
#2500
0$
#3000
b1 1
1$
#3500
0$
#4000
b10 1
1$
#4500
0$
#5000
b11 1
1$
#5500
0$
#6000
b100 1
1$
#6500
0$
#7000
b101 1
1$
#7500
0$
#8000
b110 1
1$
#8500
0$
#9000
b111 1
1$
#9500
0$
#10000
b1000 1
1$
#10500
0$
#11000
b1001 1
1$
#11500
0$
#12000
b1111111001 ?
b11111110011100000 @
b1010101010010000001000010000111011000000100100101000100000010110111101010100000010110101000011000001111110110110000000000111010000001000000000010001101101 A
b11111111101110010011 >
b1110100000010 =
b11111000000100101000 <
b10110101000011 ;
b11111010010000101011 :
b10010010100010 9
b1000010000111011 8
b10101010100100 7
1%
b1010101010010000001000010000111011000000100100101000101111101001000010101100000010110101000011111110000001001010000000000111010000001011111111101110010011 )
b1010101010010000001000010000111011000000100100101000101111101001000010101100000010110101000011111110000001001010000000000111010000001011111111101110010011 5
b0 .
b1111111111111111101100000000000000110000000000000000000001101111111111111110111111111111111111111010111111111111111000111111111111111111111100000000000000001101 &
b1101 '
b10000111000 #
b100001110001100011 "
b11011100010111 ,
b1111111001111111110000001100101011111001000000011100001101101111101110000000101111111110001101011100111110000010110001011111111110111011101100000011011100010111 *
b11011100010111 +
b10000 0
b0 4
b10000 /
b1101111 -
b10000000000000000000000000000100 2
0(
b1000 1
1$
#12500
0$
#13000
b1010 I
b100001 H
b1001 G
b11111111111111101001 F
b1011 E
b11111111111111100001 D
b111 C
b101000000000000000100001000000000000000010011111111111111110100100000000000000001011111111111111111000010000000000000000011111111111111111111111 !
b101000000000000000100001000000000000000010011111111111111110100100000000000000001011111111111111111000010000000000000000011111111111111111111111 6
b11111111111111111111 B
b10011011101 ?
b100110111011110011 @
b10000100011000100000100000100001001000010110001111111100000001011011100010100000001000000110011000000110000101100000000101010010000001000000010001000010001 A
b11111101110111101111 >
b11110101011011111110 =
b11000010110000 <
b1000000110011 ;
b11111101001000111011 :
b11110100111000000010 9
b11111011111011110111 8
b11111011110111001111 7
b1111101111011100111111111011111011110111111101001110000000101111110100100011101100000001000000110011000000110000101100001111010101101111111011111101110111101111 )
b1111101111011100111111111011111011110111111101001110000000101111110100100011101100000001000000110011000000110000101100001111010101101111111011111101110111101111 5
b1 4
1$
#13500
0$
#14000
b11111111111111110011 I
b11111111111111110011 H
b11111111111111011100 G
b11111111111111110111 F
b11 E
b1010 D
b11111111111111011110 C
b1111111111111111001111111111111111110011111111111111110111001111111111111111011100000000000000000011000000000000000010101111111111111101111011111111111111111001 !
b1111111111111111001111111111111111110011111111111111110111001111111111111111011100000000000000000011000000000000000010101111111111111101111011111111111111111001 6
b11111111111111111001 B
b10011100100 ?
b100111001001011100 @
b10111010101011100000000100110110110000001110111110010000000010110110111000000000100001110001111000000000001000100110000110000110100001100000011000000110010 A
b11000000110010 >
b11110011110010111101 =
b11111111111011101101 <
b11111011110001110001 ;
b11111010010010010000 :
b11111000100000111000 9
b11111111011001001010 8
b11111010001010101001 7
b1111101000101010100111111111011001001010111110001000001110001111101001001001000011111011110001110001111111111110111011011111001111001011110100000011000000110010 )
b1111101000101010100111111111011001001010111110001000001110001111101001001001000011111011110001110001111111111110111011011111001111001011110100000011000000110010 5
b10 4
1$
#14500
0$
#15000
b11111111111111101101 I
b11111111111111111111 H
b11111111111111101000 G
b11111111111111101110 F
b11111111111111110011 E
b0 D
b11111111111111011001 C
b1111111111111110110111111111111111111111111111111111111010001111111111111110111011111111111111110011000000000000000000001111111111111101100100000000000000001001 !
b1111111111111110110111111111111111111111111111111111111010001111111111111110111011111111111111110011000000000000000000001111111111111101100100000000000000001001 6
b1001 B
b10000101010 ?
b100001010100111101 @
b101111110011100001001001110010011000000011000011111100000001010001101000000000101000111001111000000010011100011110000011110001100011100000100101001010000 A
b11111011010110110000 >
b111100011000111 =
b11111110110001110001 <
b101000111001111 ;
b10100011010000 :
b1100001111110 9
b11110110110001101101 8
b11111110100000011001 7
b1111111010000001100111110110110001101101000000011000011111100000001010001101000000000101000111001111111111101100011100010000011110001100011111111011010110110000 )
b1111111010000001100111110110110001101101000000011000011111100000001010001101000000000101000111001111111111101100011100010000011110001100011111111011010110110000 5
b11 4
1$
#15500
0$
#16000
b11111111111111111011 I
b11111111111111011101 H
b101 G
b1001 F
b10011 E
b11111111111111111100 D
b11101 C
b1111111111111111101111111111111111011101000000000000000001010000000000000000100100000000000000010011111111111111111111000000000000000001110111111111111111101111 !
b1111111111111111101111111111111111011101000000000000000001010000000000000000100100000000000000010011111111111111111111000000000000000001110111111111111111101111 6
b11111111111111101111 B
b1101011010 ?
b11010110100001000 @
b10110010100101100000100100110011011000001001000000101110000000011100111101100000001000111011110000001010011010001100000010001111010101000000000011011000010 A
b11111111100100111110 >
b11111011100001010110 =
b101001101000110 <
b11111110111000100010 ;
b111001111011 :
b11111011011111101001 9
b11111011011001100101 8
b11111010011010110101 7
b1111101001101011010111111011011001100101111110110111111010010000000011100111101111111110111000100010000001010011010001101111101110000101011011111111100100111110 )
b1111101001101011010111111011011001100101111110110111111010010000000011100111101111111110111000100010000001010011010001101111101110000101011011111111100100111110 5
b100 4
1$
#16500
0$
#17000
b11111111111111100110 I
b11111111111111101011 H
b11111111111111101011 G
b100 F
b11111111111111111011 E
b11000 D
b11111111111111101011 C
b1111111111111110011011111111111111101011111111111111111010110000000000000000010011111111111111111011000000000000000110001111111111111110101111111111111111111110 !
b1111111111111110011011111111111111101011111111111111111010110000000000000000010011111111111111111011000000000000000110001111111111111110101111111111111111111110 6
b11111111111111111110 B
b10011100100 ?
b100111001001000100 @
b10010110001000000101111000011011000001101001110101000000011110010000110100000100000110011110000000111011011100010000100101000001011100000001011011000000 A
b11111110100101000000 >
b1001010000010111 =
b11111100010010001111 <
b11111011111001100010 ;
b11111000011011110011 :
b110100111010100 9
b11111010000111100101 8
b11111111011010011110 7
b1111111101101001111011111010000111100101000001101001110101001111100001101111001111111011111001100010111111000100100011110000100101000001011111111110100101000000 )
b1111111101101001111011111010000111100101000001101001110101001111100001101111001111111011111001100010111111000100100011110000100101000001011111111110100101000000 5
b101 4
1$
#17500
0$
#18000
b11111111111111111111 I
b11111111111111101101 H
b10101 G
b11111111111111101000 F
b11111111111111110011 E
b11111111111111110100 D
b11110 C
b1111111111111111111111111111111111101101000000000000000101011111111111111110100011111111111111110011111111111111111101000000000000000001111011111111111111111100 !
b1111111111111111111111111111111111101101000000000000000101011111111111111110100011111111111111110011111111111111111101000000000000000001111011111111111111111100 6
b11111111111111111100 B
b10011111001 ?
b100111110011011001 @
b1010111000000000010011100110111000001010011011011010000011011010111000100001001001011110001000001010110011011110000000000110001001100001010001011100001 A
b11110101110100011111 >
b1100010011 =
b11111010100110010001 <
b1001001011110001 ;
b11111001001010001111 :
b101001101101101 9
b11111101100011001001 8
b10101110000 7
b1010111000011111101100011001001000001010011011011011111100100101000111100001001001011110001111110101001100100010000000000110001001111110101110100011111 )
b1010111000011111101100011001001000001010011011011011111100100101000111100001001001011110001111110101001100100010000000000110001001111110101110100011111 5
b110 4
1$
#18500
0$
#19000
b1 I
b11111111111111111001 H
b10000 G
b11111111111111101010 F
b11101 E
b11111111111111101111 D
b0 C
b111111111111111111001000000000000000100001111111111111110101000000000000000011101111111111111111011110000000000000000000011111111111111100000 !
b111111111111111111001000000000000000100001111111111111110101000000000000000011101111111111111111011110000000000000000000011111111111111100000 6
b11111111111111100000 B
b1011111001 ?
b10111110010001110 @
b100001111011100000010011101110000000000010011101110100000100001010000110000000101000100101101000000100000110001110000000010110001101000000010111001010011 A
b10111001010011 >
b101100011010 =
b10000011000111 <
b11111010111011010011 ;
b1000010100001100 :
b11111110110001000110 9
b11111101100010010000 8
b11111110111100001001 7
b1111111011110000100111111101100010010000111111101100010001100000100001010000110011111010111011010011000000100000110001110000000010110001101000000010111001010011 )
b1111111011110000100111111101100010010000111111101100010001100000100001010000110011111010111011010011000000100000110001110000000010110001101000000010111001010011 5
b111 4
1$
#19500
0$
#20000
b11111111111111111011 I
b11111111111111110011 H
b11111111111111111010 G
b101100 F
b11111111111111100101 E
b1011 D
b11 C
b1111111111111111101111111111111111110011111111111111111110100000000000000010110011111111111111100101000000000000000010110000000000000000001100000000000000001111 !
b1111111111111111101111111111111111110011111111111111111110100000000000000010110011111111111111100101000000000000000010110000000000000000001100000000000000001111 6
b1111 B
b1110111011 ?
b11101110110101001 @
b110110110110000001000110000011010000000110101000101000000000101011111111100000001101001100101000000010110011111010000010011010100110000000110110011100010 A
b110110011100010 >
b11111011001010110100 =
b1011001111101 <
b1101001100101 ;
b11111110101000000001 :
b11010100010100 9
b1000110000011010 8
b11111110010010010100 7
b1111111001001001010000001000110000011010000000110101000101001111111010100000000100000001101001100101000000010110011111011111101100101011010000000110110011100010 )
b1111111001001001010000001000110000011010000000110101000101001111111010100000000100000001101001100101000000010110011111011111101100101011010000000110110011100010 5
b1000 4
1$
#20500
0$
#21000
b11111111111111111001 I
b100101 H
b1110 G
b11111111111111111011 F
b111 E
b110 D
b11111111111111101100 C
b1111111111111111100100000000000000100101000000000000000011101111111111111111101100000000000000000111000000000000000001101111111111111110110000000000000000011101 !
b1111111111111111100100000000000000100101000000000000000011101111111111111111101100000000000000000111000000000000000001101111111111111110110000000000000000011101 6
b11101 B
b1011000011 ?
b10110000110000101 @
b100100000110000000010001101001010000001010011110110010000000100110000111000000101100011001100000000001110111001010000001001011100010000000011011111010011 A
b11111100100000101101 >
b10010111000100 =
b11111111000100011011 <
b101100011001100 ;
b11111110110011110010 :
b101001111011001 9
b10001101001010 8
b11111110110111110100 7
b1111111011011111010000000010001101001010000001010011110110011111111011001111001000000101100011001100111111110001000110110000001001011100010011111100100000101101 )
b1111111011011111010000000010001101001010000001010011110110011111111011001111001000000101100011001100111111110001000110110000001001011100010011111100100000101101 5
b1001 4
1$
#21500
0$
#22000
b11111111111111111010 I
b1100 H
b11110 G
b11111111111111111010 F
b100000 E
b11111111111111111011 D
b1101 C
b1111111111111111101000000000000000001100000000000000000111101111111111111111101000000000000000100000111111111111111110110000000000000000110111111111111111101100 !
b1111111111111111101000000000000000001100000000000000000111101111111111111111101000000000000000100000111111111111111110110000000000000000110111111111111111101100 6
b11111111111111101100 B
b10100101101 ?
b101001011010000000 @
b110101100100100000111001011000001000000011111110000100000000111110001000000000100111010110111000001000001101111000001000000111111010000000011010110111101 A
b11111100101001000011 >
b10000001111110100 =
b11111011111001000100 <
b11111011000101001001 ;
b11111110000011110000 :
b1111111000010 9
b11111000110100111111 8
b1101011001001 7
b110101100100111111000110100111111000000011111110000101111111000001111000011111011000101001001111110111110010001000001000000111111010011111100101001000011 )
b110101100100111111000110100111111000000011111110000101111111000001111000011111011000101001001111110111110010001000001000000111111010011111100101001000011 5
b1010 4
1$
#22500
0$
#23000
b101 I
b11111111111111101010 H
b110 G
b11111111111111110001 E
b11111111111111110100 D
b110010 C
b10111111111111111101010000000000000000001101111111111111111101011111111111111110001111111111111111101000000000000000011001011111111111111110110 !
b10111111111111111101010000000000000000001101111111111111111101011111111111111110001111111111111111101000000000000000011001011111111111111110110 6
b11111111111111110110 B
b1001100101 ?
b10011001010100010 @
b100011011111100000011111111010011000001000101110000110000000000010100101000000100111110001000000000000000001100110000001111000011011100000000111000010001 A
b111000010001 >
b11110000110111 =
b110011 <
b11111011000001111000 ;
b11111111111010110110 :
b100010111000011 9
b11111100000000101101 8
b1000110111111 7
b100011011111111111100000000101101000001000101110000111111111111101011011011111011000001111000000000000000001100110000001111000011011100000000111000010001 )
b100011011111111111100000000101101000001000101110000111111111111101011011011111011000001111000000000000000001100110000001111000011011100000000111000010001 5
b1011 4
1$
#23500
0$
#24000
b111 I
b11111111111111100110 H
b11101 G
b0 F
b11111111111111011111 E
b0 D
b11001 C
b11111111111111111100110000000000000000111010000000000000000000011111111111111011111000000000000000000000000000000000001100100000000000000000101 !
b11111111111111111100110000000000000000111010000000000000000000011111111111111011111000000000000000000000000000000000001100100000000000000000101 6
b101 B
b11101001101 ?
b111010011010010010 @
b111110111000001001110000111001000010110000011010110000010001000110001100000000101110001100000001011110100111100001010010100100110100000101110100100110 A
b101110100100110 >
b11101011010110110011 =
b101111010011110 <
b101110001100 ;
b100010001100011 :
b11110100111110010101 9
b1001110000111001 8
b11111111110000010010 7
b1111111111000001001000001001110000111001111101001111100101010000010001000110001100000000101110001100000001011110100111101110101101011011001100000101110100100110 )
b1111111111000001001000001001110000111001111101001111100101010000010001000110001100000000101110001100000001011110100111101110101101011011001100000101110100100110 5
b1100 4
1$
#24500
0$
#25000
b0 I
b10101 H
b11111111111111101000 G
b1001 F
b1 E
b1100 D
b11111111111111010011 C
b10101111111111111111010000000000000000000100100000000000000000001000000000000000011001111111111111101001100000000000000001100 !
b10101111111111111111010000000000000000000100100000000000000000001000000000000000011001111111111111101001100000000000000001100 6
b1100 B
b11001110001 ?
b110011100010111001 @
b10001010110111000001000010100001001000000110100100110000000000011110100000000001101100001110011000001010101100011000000110100100000110100000010101001011110 A
b11111101010110100010 >
b11110010110111110011 =
b11111010101001110100 <
b1101100001110011 ;
b11111111000011000000 :
b11111100101101101000 9
b1000010100001001 8
b100010101101110 7
b10001010110111000001000010100001001111111001011011010001111111100001100000000001101100001110011111110101010011101001111001011011111001111111101010110100010 )
b10001010110111000001000010100001001111111001011011010001111111100001100000000001101100001110011111110101010011101001111001011011111001111111101010110100010 5
b1101 4
1$
#25500
0$
#26000
b1010 I
b10100 H
b11111111111111111000 G
b11111111111111111110 F
b100001 E
b11111111111111110011 D
b11111111111111100000 C
b101000000000000000010100111111111111111110001111111111111111111000000000000000100001111111111111111100111111111111111110000011111111111111111010 !
b101000000000000000010100111111111111111110001111111111111111111000000000000000100001111111111111111100111111111111111110000011111111111111111010 6
b11111111111111111010 B
b1100111111 ?
b11001111111001100 @
b11101101001010100000011000001110001000000111110010101110000001000011101010100000100000000011001000000001101011001010000000000111011001100000100011101101001 A
b11111011100010010111 >
b1110110011 =
b110101100101 <
b100000000011001 ;
b11111101111000101011 :
b11111001010111 9
b11111100111110001111 8
b111011010010101 7
b11101101001010111111100111110001111000000111110010101111111110111100010101100000100000000011001000000001101011001010000000000111011001111111011100010010111 )
b11101101001010111111100111110001111000000111110010101111111110111100010101100000100000000011001000000001101011001010000000000111011001111111011100010010111 5
b1110 4
1$
#26500
0$
#27000
b100100 I
b11111111111111110010 H
b10011 G
b11111111111111110110 F
b10011 E
b100 D
b1 C
b10010011111111111111110010000000000000000100111111111111111111011000000000000000010011000000000000000001000000000000000000000111111111111111101011 !
b10010011111111111111110010000000000000000100111111111111111111011000000000000000010011000000000000000001000000000000000000000111111111111111101011 6
b11111111111111101011 B
b10000111000 ?
b100001110001100011 @
b110000000010000001100101011111001000000011100001101100000010001111111010100000001110010100100000001111101001110110000000001000100010100000011011100010111 A
b11011100010111 >
b11111111101110111011 =
b11111000001011000101 <
b11111110001101011100 ;
b11111011100000001011 :
b1110000110110 9
b1100101011111001 8
b11111110011111111100 7
b1111111001111111110000001100101011111001000000011100001101101111101110000000101111111110001101011100111110000010110001011111111110111011101100000011011100010111 )
b1111111001111111110000001100101011111001000000011100001101101111101110000000101111111110001101011100111110000010110001011111111110111011101100000011011100010111 5
b1111 4
1$
#27500
0$
#28000
b11111111111111111011 I
b110000 H
b110 G
b11111111111111101111 F
b11111111111111111010 E
b11111111111111100011 D
b11111111111111111111 C
b1111111111111111101100000000000000110000000000000000000001101111111111111110111111111111111111111010111111111111111000111111111111111111111100000000000000001101 !
b1111111111111111101100000000000000110000000000000000000001101111111111111110111111111111111111111010111111111111111000111111111111111111111100000000000000001101 6
b1101 B
b10000 4
1$
#28500
0$
#29000
0%
1$
